{
    "fluentMethods": true,
    "clientRootFolder": "conferences",
    "relationships": [],
    "fields": [
        {
            "fieldName": "name",
            "fieldType": "String",
            "fieldValidateRules": [
                "required",
                "unique"
            ]
        },
        {
            "fieldName": "participants",
            "fieldType": "Integer",
            "fieldValidateRules": [
                "required"
            ]
        },
        {
            "fieldName": "date",
            "fieldType": "ZonedDateTime",
            "fieldValidateRules": [
                "required"
            ]
        }
    ],
    "changelogDate": "20191220122847",
    "dto": "mapstruct",
    "searchEngine": false,
    "service": "serviceClass",
    "entityTableName": "conference",
    "databaseType": "sql",
    "jpaMetamodelFiltering": false,
    "pagination": "no",
    "microserviceName": "conferences"
}
